Line by Line Test Log Linear Allocation Test • Optimal Allocation
…
head(tb_states_choices_bisec_long %>% select(-one_of('p','f_p','f_p_t_f_a')), 30)

## # A tibble: 30 x 6
##    indi_id  fl_a fl_alpha varname biseciter    value
##      <int> <dbl>    <dbl> <chr>   <chr>        <dbl>
##  1     415  4.33  0.00669 a       0               0 
##  2     415  4.33  0.00669 b       0             100 
##  3     415  4.33  0.00669 fa      0             100 
##  4     415  4.33  0.00669 fb      0         -162131.
##  5     415  4.33  0.00669 a       1               0 
##  6     415  4.33  0.00669 b       1              50 
##  7     415  4.33  0.00669 fa      1             100 
##  8     415  4.33  0.00669 fb      1          -80965.
##  9     415  4.33  0.00669 a       2               0 
## 10     415  4.33  0.00669 b       2              25 
## # ... with 20 more rows

tail(tb_states_choices_bisec_long %>% select(-one_of('p','f_p','f_p_t_f_a')), 30)

## # A tibble: 30 x 6
##    indi_id  fl_a fl_alpha varname biseciter      value
##      <int> <dbl>    <dbl> <chr>   <chr>          <dbl>
##  1     709  4.33   0.0121 fa      29         0.0000610
##  2     709  4.33   0.0121 fb      29        -0.000105 
##  3     709  4.33   0.0121 a       30         0.112    
##  4     709  4.33   0.0121 b       30         0.112    
##  5     709  4.33   0.0121 fa      30         0.0000610
##  6     709  4.33   0.0121 fb      30        -0.0000222
##  7     709  4.33   0.0121 a       31         0.112    
##  8     709  4.33   0.0121 b       31         0.112    
##  9     709  4.33   0.0121 fa      31         0.0000194
## 10     709  4.33   0.0121 fb      31        -0.0000222
## # ... with 20 more rows
…
head(tb_states_choices_bisec_wider %>% select(-one_of('p','f_p','f_p_t_f_a')), 30)

## # A tibble: 30 x 8
##    indi_id  fl_a fl_alpha biseciter     a       b    fa       fb
##      <int> <dbl>    <dbl> <chr>     <dbl>   <dbl> <dbl>    <dbl>
##  1     415  4.33  0.00669 0             0 100       100 -162131.
##  2     415  4.33  0.00669 1             0  50       100  -80965.
##  3     415  4.33  0.00669 2             0  25       100  -40407.
##  4     415  4.33  0.00669 3             0  12.5     100  -20141.
##  5     415  4.33  0.00669 4             0   6.25    100  -10014.
##  6     415  4.33  0.00669 5             0   3.12    100   -4954.
##  7     415  4.33  0.00669 6             0   1.56    100   -2425.
##  8     415  4.33  0.00669 7             0   0.781   100   -1162.
##  9     415  4.33  0.00669 8             0   0.391   100    -531.
## 10     415  4.33  0.00669 9             0   0.195   100    -215.
## # ... with 20 more rows

tail(tb_states_choices_bisec_wider %>% select(-one_of('p','f_p','f_p_t_f_a')), 30)

## # A tibble: 30 x 8
##    indi_id  fl_a fl_alpha biseciter      a     b      fa       fb
##      <int> <dbl>    <dbl> <chr>      <dbl> <dbl>   <dbl>    <dbl>
##  1     709  4.33   0.0121 7         0      0.781 100     -598.   
##  2     709  4.33   0.0121 8         0      0.391 100     -249.   
##  3     709  4.33   0.0121 9         0      0.195 100      -74.4  
##  4     709  4.33   0.0121 10        0.0977 0.195  12.8    -74.4  
##  5     709  4.33   0.0121 11        0.0977 0.146  12.8    -30.8  
##  6     709  4.33   0.0121 12        0.0977 0.122  12.8     -9.04 
##  7     709  4.33   0.0121 13        0.110  0.122   1.86    -9.04 
##  8     709  4.33   0.0121 14        0.110  0.116   1.86    -3.59 
##  9     709  4.33   0.0121 15        0.110  0.113   1.86    -0.863
## 10     709  4.33   0.0121 16        0.111  0.113   0.499   -0.863
## # ... with 20 more rows
…
