Line by Line Test Bounded-Continuous Function with Height Nutrition Data • Optimal Allocation
…
##  rela_slope_to_lowest rela_intercept_to_lowest
##  Min.   :0.7946       Min.   :-6.2816         
##  1st Qu.:1.0155       1st Qu.:-1.4794         
##  Median :1.3717       Median :-0.8238         
##  Mean   :1.8444       Mean   :-1.1871         
##  3rd Qu.:2.1876       3rd Qu.:-0.5305         
##  Max.   :5.7846       Max.   : 0.0000

df_opti %>%
  select(A, alpha, beta,
         rank_val, rela_intercept_to_lowest, rela_x_intercept,
         rank_y_inter_idx, rank_x_inter_idx)

## # A tibble: 50 x 8
##        A alpha    beta rank_val rela_intercept_~ rela_x_intercept
##    <dbl> <dbl>   <dbl>    <dbl>            <dbl>            <dbl>
##  1  1.12 0.895 0.0370      1.53          0                 0     
##  2  1.00 0.995 0.00853     1.54         -0.00948           0.0119
##  3  1.13 0.575 0.0355      1.61         -0.0938            0.0630
##  4  1.05 0.359 0.0233      1.62         -0.156             0.0710
##  5  1.22 0.738 0.0382      1.69         -0.155             0.130 
##  6  1.09 0.508 0.0117      1.74         -0.266             0.177 
##  7  1.24 0.967 0.0240      1.75         -0.163             0.182 
##  8  1.11 0.232 0.0268      1.76         -0.635             0.192 
##  9  1.27 0.615 0.0368      1.80         -0.310             0.221 
## 10  1.18 0.308 0.0171      1.89         -0.733             0.299 
## # ... with 40 more rows, and 2 more variables: rank_y_inter_idx <int>,
## #   rank_x_inter_idx <int>
…
