LOG-LINEAR--DRS (Log-Linear) Optimal Allocation Analytical Common Alpha • PrjOptiAlloc
…
head(tb_states_choices_bisec_long %>% select(-one_of('p','f_p','f_p_t_f_a')), 30)

## # A tibble: 30 x 6
##    indi_id  fl_a fl_alpha varname biseciter   value
##      <int> <dbl>    <dbl> <chr>   <chr>       <dbl>
##  1     798  4.34   0.0121 a       0              0 
##  2     798  4.34   0.0121 b       0            100 
##  3     798  4.34   0.0121 fa      0            100 
##  4     798  4.34   0.0121 fb      0         -88981.
##  5     798  4.34   0.0121 a       1              0 
##  6     798  4.34   0.0121 b       1             50 
##  7     798  4.34   0.0121 fa      1            100 
##  8     798  4.34   0.0121 fb      1         -44446.
##  9     798  4.34   0.0121 a       2              0 
## 10     798  4.34   0.0121 b       2             25 
## # ... with 20 more rows

tail(tb_states_choices_bisec_long %>% select(-one_of('p','f_p','f_p_t_f_a')), 30)

## # A tibble: 30 x 6
##    indi_id  fl_a fl_alpha varname biseciter       value
##      <int> <dbl>    <dbl> <chr>   <chr>           <dbl>
##  1     116  4.34  0.00669 fa      29         0.000232  
##  2     116  4.34  0.00669 fb      29        -0.0000675 
##  3     116  4.34  0.00669 a       30         0.0622    
##  4     116  4.34  0.00669 b       30         0.0622    
##  5     116  4.34  0.00669 fa      30         0.0000825 
##  6     116  4.34  0.00669 fb      30        -0.0000675 
##  7     116  4.34  0.00669 a       31         0.0622    
##  8     116  4.34  0.00669 b       31         0.0622    
##  9     116  4.34  0.00669 fa      31         0.00000750
## 10     116  4.34  0.00669 fb      31        -0.0000675 
## # ... with 20 more rows
…
head(tb_states_choices_bisec_wider %>% select(-one_of('p','f_p','f_p_t_f_a')), 30)

## # A tibble: 30 x 8
##    indi_id  fl_a fl_alpha biseciter     a       b    fa       fb
##      <int> <dbl>    <dbl> <chr>     <dbl>   <dbl> <dbl>    <dbl>
##  1     798  4.34   0.0121 0             0 100       100 -88981. 
##  2     798  4.34   0.0121 1             0  50       100 -44446. 
##  3     798  4.34   0.0121 2             0  25       100 -22176. 
##  4     798  4.34   0.0121 3             0  12.5     100 -11039. 
##  5     798  4.34   0.0121 4             0   6.25    100  -5470. 
##  6     798  4.34   0.0121 5             0   3.12    100  -2686. 
##  7     798  4.34   0.0121 6             0   1.56    100  -1293. 
##  8     798  4.34   0.0121 7             0   0.781   100   -597. 
##  9     798  4.34   0.0121 8             0   0.391   100   -248. 
## 10     798  4.34   0.0121 9             0   0.195   100    -74.2
## # ... with 20 more rows

tail(tb_states_choices_bisec_wider %>% select(-one_of('p','f_p','f_p_t_f_a')), 30)

## # A tibble: 30 x 8
##    indi_id  fl_a fl_alpha biseciter      a      b     fa        fb
##      <int> <dbl>    <dbl> <chr>      <dbl>  <dbl>  <dbl>     <dbl>
##  1     116  4.34  0.00669 7         0      0.781  100    -1160.   
##  2     116  4.34  0.00669 8         0      0.391  100     -529.   
##  3     116  4.34  0.00669 9         0      0.195  100     -215.   
##  4     116  4.34  0.00669 10        0      0.0977 100      -57.2  
##  5     116  4.34  0.00669 11        0.0488 0.0977  21.5    -57.2  
##  6     116  4.34  0.00669 12        0.0488 0.0732  21.5    -17.8  
##  7     116  4.34  0.00669 13        0.0610 0.0732   1.81   -17.8  
##  8     116  4.34  0.00669 14        0.0610 0.0671   1.81    -8.02 
##  9     116  4.34  0.00669 15        0.0610 0.0641   1.81    -3.10 
## 10     116  4.34  0.00669 16        0.0610 0.0626   1.81    -0.645
## # ... with 20 more rows
…
