Bush Checks from the Economic Stimulus Act of 2008 • Optimal Allocation
…
We do this first for the actual stimulus that households should receive under the Economic Stimulus Act of 2008. We then adjust parameters for the stimulus function and compute alternative max-stimulus bounds for each income bin.

Test the Stimulus Determiniation Function Line by ine

We develop the function by testing out the code line by line first.

First, load in the testing dataframe df_nsw_tiny_chk168_df_id.

# Load file
data(df_nsw_tiny_chk168_df_id)
df_id <- df_nsw_tiny_chk168_df_id
# Print results
print(df_id)

## # A tibble: 111 x 7
##     id_i marital  kids age_group ymin_group        mass hhsize
##    <dbl>   <int> <int> <fct>     <fct>            <dbl>  <dbl>
##  1     1       0     0 (17,64]   (0,0.363]     0.0317        1
##  2     2       0     0 (17,64]   (0.363,0.544] 0.0606        1
##  3     3       0     0 (17,64]   (0.544,0.725] 0.0994        1
##  4     4       0     0 (17,64]   (0.725,0.907] 0.0437        1
##  5     5       0     0 (17,64]   (0.907,1.09]  0.0508        1
##  6     6       0     0 (17,64]   (1.09,1.27]   0.0218        1
##  7     7       0     0 (17,64]   (1.27,1.45]   0.0191        1
##  8     8       0     0 (17,64]   (1.45,1.63]   0.0307        1
##  9     9       0     0 (17,64]   (1.63,1.81]   0.000942      1
## 10    10       0     0 (17,64]   (1.81,1.99]   0.0119        1
## # ... with 101 more rows
…
# Display results
print(df_id)

## # A tibble: 111 x 11
##     id_i bush_rebate bush_rebate_n_c~ marital  kids age_group ymin_group    mass
##    <dbl>       <dbl>            <dbl>   <int> <int> <fct>     <chr>        <dbl>
##  1     1       409.                 4       0     0 (17,64]   (0,0.363]  3.17e-2
##  2     2       600                  6       0     0 (17,64]   (0.363,0.~ 6.06e-2
##  3     3       600                  6       0     0 (17,64]   (0.544,0.~ 9.94e-2
##  4     4       600                  6       0     0 (17,64]   (0.725,0.~ 4.37e-2
##  5     5       600                  6       0     0 (17,64]   (0.907,1.~ 5.08e-2
##  6     6       600                  6       0     0 (17,64]   (1.09,1.2~ 2.18e-2
##  7     7       398.                 4       0     0 (17,64]   (1.27,1.4~ 1.91e-2
##  8     8        19.5                0       0     0 (17,64]   (1.45,1.6~ 3.07e-2
##  9     9         0                  0       0     0 (17,64]   (1.63,1.8~ 9.42e-4
## 10    10         0                  0       0     0 (17,64]   (1.81,1.9~ 1.19e-2
## # ... with 101 more rows, and 3 more variables: hhsize <dbl>,
## #   y_group_min <dbl>, y_group_max <dbl>
…
