Discrete Optimal Allocation for N=2 and Welfare Distance REV • Optimal Allocation
…
Sort Value along Resource Expansion Path:

df_queue_il_long_n2 %>%
  arrange(rho_val, Q_il) %>%
  select(rho_val, id_i, id_il, Q_il, D_Wbin_il, V_sum_l, V_inner_Q_il, V_star_Q_il)

## # A tibble: 33 x 8
##    rho_val  id_i id_il  Q_il D_Wbin_il  V_sum_l V_inner_Q_il V_star_Q_il
##      <dbl> <dbl> <int> <int>     <dbl>    <dbl>        <dbl>       <dbl>
##  1    -100     2     7     1         1 4.79e-27     1.51e- 9        1.23
##  2    -100     1     1     2         1 1.45e-37     4.79e-27        1.83
##  3    -100     2     8     3         1 4.46e-43     1.45e-37        2.34
##  4    -100     1     2     4         1 4.14e-53     4.46e-43        2.65
##  5    -100     2     9     5         1 1.01e-53     5.15e-53        3.33
##  6    -100     1     3     6         1 2.72e-64     1.01e-53        3.39
##  7    -100     2    10     7         0 1.02e-61     1.02e-61        4.07
##  8    -100     2    11     8         0 1.55e-67     2.72e-64        4.32
##  9    -100     1     4     9         0 5.44e-72     1.55e-67        4.66
## 10    -100     1     5    10         0 2.34e-78     1.55e-67        4.66
## # ... with 23 more rows
…
print(df_input_ib_all)

## # A tibble: 82 x 8
##    id_alloc id_i  id_1l id_2l A_i_l0 alpha_o_i beta_i w_agg
##       <int> <fct> <fct> <fct>  <dbl>     <dbl>  <dbl> <dbl>
##  1        1 1     1     0      1.22       1.10    0.5     3
##  2        1 2     1     0      0.958      0       0.5     3
##  3        2 1     2     0      1.22       2.10    0.5     4
##  4        2 2     2     0      0.958      0       0.5     4
##  5        3 1     3     0      1.22       3.08    0.5     5
##  6        3 2     3     0      0.958      0       0.5     5
##  7        4 1     4     0      1.22       3.91    0.5     6
##  8        4 2     4     0      0.958      0       0.5     6
##  9        5 1     5     0      1.22       4.72    0.5     7
## 10        5 2     5     0      0.958      0       0.5     7
## # ... with 72 more rows
…
## Joining, by = "id_alloc"

# show results
head(df_rev_allrho, 50)

## # A tibble: 50 x 8
##    id_alloc_rho id_alloc   rho rho_val   REV id_1l id_2l w_agg
##           <int>    <int> <int>   <dbl> <dbl> <fct> <fct> <dbl>
##  1           19        7     1    0.99 0.667 0     1         3
##  2            1        1     1    0.99 0.667 1     0         3
##  3           20        7     2   -0.01 0.667 0     1         3
##  4            2        1     2   -0.01 0.667 1     0         3
##  5           21        7     3 -100    0.667 0     1         3
##  6            3        1     3 -100    0.667 1     0         3
##  7           40       14     1    0.99 0.5   0     2         4
##  8           22        8     1    0.99 0.5   1     1         4
##  9            4        2     1    0.99 0.5   2     0         4
## 10           41       14     2   -0.01 0.5   0     2         4
## # ... with 40 more rows
…
