Line by Line Discrete Allocation with Linear Regression • Optimal Allocation
…
## Warning: `funs()` is deprecated as of dplyr 0.8.0.
## Please use a list of either functions or lambdas: 
## 
##   # Simple named list: 
##   list(mean = mean, median = median)
## 
##   # Auto named with `tibble::lst()`: 
##   tibble::lst(mean, median)
## 
##   # Using lambdas
##   list(~ mean(., trim = .2), ~ median(., na.rm = TRUE))
## This warning is displayed once every 8 hours.
## Call `lifecycle::last_warnings()` to see where this warning was generated.

## # A tibble: 45 x 16
##    county X_mean distcod_mean enrltot_mean teachers_mean calwpct_mean
##    <fct>   <dbl>        <dbl>        <dbl>         <dbl>        <dbl>
##  1 Alame~     1        75119          195          10.9         0.510
##  2 Butte     36        61486.        1152.         60.5        36.3  
##  3 Calav~   233        61572          777          36.8        13.0  
##  4 Contr~   299.       61738.        2726.        138.          3.51 
##  5 El Do~   294.       61912.        1373.         69.5         6.73 
##  6 Fresno   111        62250.         504.         26.4        21.1  
##  7 Glenn    264.       62596          138.          6.58        7.11 
##  8 Humbo~   240.       62888.         380.         20.6        17.8  
##  9 Imper~   121.       63163.        1936          92.5        19.7  
## 10 Inyo     252        63255         1510          73.3        10.3  
## # ... with 35 more rows, and 10 more variables: mealpct_mean <dbl>,
## #   computer_mean <dbl>, testscr_mean <dbl>, compstu_mean <dbl>,
## #   expnstu_mean <dbl>, str_mean <dbl>, avginc_mean <dbl>, elpct_mean <dbl>,
## #   readscr_mean <dbl>, mathscr_mean <dbl>
…
DF1: Effect of Teacher on Scores (df_casch_prep_i)

The objective of this section is the generate dataframe df_casch_prep_i.

Tabulate

# Tabulate groups, how many in each group, enough for group heterogeneity in effects?
dfca %>%
  group_by(county, grspan) %>%
  summarize(freq = n()) %>%
  pivot_wider(names_from = grspan, values_from = freq)

## `summarise()` regrouping output by 'county' (override with `.groups` argument)

## # A tibble: 45 x 3
## # Groups:   county [45]
##    county       `KK-08` `KK-06`
##    <fct>          <int>   <int>
##  1 Alameda            1      NA
##  2 Butte              6      NA
##  3 Calaveras          1      NA
##  4 Contra Costa       7      NA
##  5 El Dorado         10      NA
##  6 Fresno            12      NA
##  7 Glenn              3      NA
##  8 Humboldt          14       3
##  9 Imperial           6      NA
## 10 Inyo               1      NA
## # ... with 35 more rows
…
rs_scr_on_str_tidy = tidy(rs_scr_on_str)
rs_scr_on_str_tidy

## # A tibble: 49 x 5
##    term                               estimate std.error statistic   p.value
##    <chr>                                 <dbl>     <dbl>     <dbl>     <dbl>
##  1 mt_model(Intercept)                 707.         9.93   71.2    1.54e-218
##  2 mt_modelfactor(county)Butte          -6.11       9.48   -0.645  5.19e-  1
##  3 mt_modelfactor(county)Calaveras      -9.02      12.2    -0.737  4.61e-  1
##  4 mt_modelfactor(county)Contra Costa   -8.96       9.22   -0.971  3.32e-  1
##  5 mt_modelfactor(county)El Dorado     -12.3        9.05   -1.36   1.75e-  1
##  6 mt_modelfactor(county)Fresno        -10.9        9.09   -1.20   2.29e-  1
##  7 mt_modelfactor(county)Glenn          -0.414     10.0    -0.0412 9.67e-  1
##  8 mt_modelfactor(county)Humboldt       -7.98       8.91   -0.895  3.71e-  1
##  9 mt_modelfactor(county)Imperial      -10.9        9.44   -1.16   2.49e-  1
## 10 mt_modelfactor(county)Inyo           -8.27      12.2    -0.677  4.99e-  1
## # ... with 39 more rows
…
# Invoke Function
ls_df_rosterwide <- ff_panel_expand_longrosterwide(
  df_queue_il_long %>% filter(rho == 1) %>%
    select(one_of(svr_id_i, svr_id_t)),
  svr_id_t, svr_id_i, st_idcol_prefix)

# Get Ouputs
df_roster_wide_func <- ls_df_rosterwide$df_roster_wide
df_roster_wide_cumu_func <- ls_df_rosterwide$df_roster_wide_cumu

# Print Results
print(head(df_roster_wide_func,30))

## # A tibble: 30 x 421
##     Q_il sid_1 sid_2 sid_3 sid_4 sid_5 sid_6 sid_7 sid_8 sid_9 sid_10 sid_11
##    <int> <dbl> <dbl> <dbl> <dbl> <dbl> <dbl> <dbl> <dbl> <dbl>  <dbl>  <dbl>
##  1     1    NA    NA    NA    NA    NA    NA    NA    NA    NA     NA     NA
##  2     2    NA    NA    NA    NA    NA    NA    NA    NA    NA     NA     NA
##  3     3    NA    NA    NA    NA    NA    NA    NA    NA    NA     NA     NA
##  4     4    NA    NA    NA    NA    NA    NA    NA    NA    NA     NA     NA
##  5     5    NA    NA    NA    NA    NA    NA    NA    NA    NA     NA     NA
##  6     6    NA    NA    NA    NA    NA    NA    NA    NA    NA     NA     NA
##  7     7    NA    NA    NA    NA    NA    NA    NA    NA    NA     NA     NA
##  8     8    NA    NA    NA    NA    NA     1    NA    NA    NA     NA     NA
##  9     9    NA    NA    NA    NA    NA    NA    NA    NA    NA     NA     NA
## 10    10    NA    NA    NA    NA    NA    NA    NA    NA    NA     NA     NA
## # ... with 20 more rows, and 409 more variables: sid_12 <dbl>, sid_13 <dbl>,
## #   sid_14 <dbl>, sid_15 <dbl>, sid_16 <dbl>, sid_17 <dbl>, sid_18 <dbl>,
## #   sid_19 <dbl>, sid_20 <dbl>, sid_21 <dbl>, sid_22 <dbl>, sid_23 <dbl>,
## #   sid_24 <dbl>, sid_25 <dbl>, sid_26 <dbl>, sid_27 <dbl>, sid_28 <dbl>,
## #   sid_29 <dbl>, sid_30 <dbl>, sid_31 <dbl>, sid_32 <dbl>, sid_33 <dbl>,
## #   sid_34 <dbl>, sid_35 <dbl>, sid_36 <dbl>, sid_37 <dbl>, sid_38 <dbl>,
## #   sid_39 <dbl>, sid_40 <dbl>, sid_41 <dbl>, sid_42 <dbl>, sid_43 <dbl>,
## #   sid_44 <dbl>, sid_45 <dbl>, sid_46 <dbl>, sid_47 <dbl>, sid_48 <dbl>,
## #   sid_49 <dbl>, sid_50 <dbl>, sid_51 <dbl>, sid_52 <dbl>, sid_53 <dbl>,
…
print(head(df_roster_wide_cumu_func,30))

## # A tibble: 30 x 421
##     Q_il sid_1 sid_2 sid_3 sid_4 sid_5 sid_6 sid_7 sid_8 sid_9 sid_10 sid_11
##    <int> <dbl> <dbl> <dbl> <dbl> <dbl> <dbl> <dbl> <dbl> <dbl>  <dbl>  <dbl>
##  1     1     0     0     0     0     0     0     0     0     0      0      0
##  2     2     0     0     0     0     0     0     0     0     0      0      0
##  3     3     0     0     0     0     0     0     0     0     0      0      0
##  4     4     0     0     0     0     0     0     0     0     0      0      0
##  5     5     0     0     0     0     0     0     0     0     0      0      0
##  6     6     0     0     0     0     0     0     0     0     0      0      0
##  7     7     0     0     0     0     0     0     0     0     0      0      0
##  8     8     0     0     0     0     0     1     0     0     0      0      0
##  9     9     0     0     0     0     0     1     0     0     0      0      0
## 10    10     0     0     0     0     0     1     0     0     0      0      0
## # ... with 20 more rows, and 409 more variables: sid_12 <dbl>, sid_13 <dbl>,
## #   sid_14 <dbl>, sid_15 <dbl>, sid_16 <dbl>, sid_17 <dbl>, sid_18 <dbl>,
## #   sid_19 <dbl>, sid_20 <dbl>, sid_21 <dbl>, sid_22 <dbl>, sid_23 <dbl>,
## #   sid_24 <dbl>, sid_25 <dbl>, sid_26 <dbl>, sid_27 <dbl>, sid_28 <dbl>,
## #   sid_29 <dbl>, sid_30 <dbl>, sid_31 <dbl>, sid_32 <dbl>, sid_33 <dbl>,
## #   sid_34 <dbl>, sid_35 <dbl>, sid_36 <dbl>, sid_37 <dbl>, sid_38 <dbl>,
## #   sid_39 <dbl>, sid_40 <dbl>, sid_41 <dbl>, sid_42 <dbl>, sid_43 <dbl>,
## #   sid_44 <dbl>, sid_45 <dbl>, sid_46 <dbl>, sid_47 <dbl>, sid_48 <dbl>,
## #   sid_49 <dbl>, sid_50 <dbl>, sid_51 <dbl>, sid_52 <dbl>, sid_53 <dbl>,
…
## Warning: `cols` is now required when using unnest().
## Please use `cols = c(alloc_i_upto_Q)`

# Print Results
print(head(df_alloc_il,30))

## # A tibble: 30 x 422
##      rho  Q_il sid_1 sid_2 sid_3 sid_4 sid_5 sid_6 sid_7 sid_8 sid_9 sid_10
##    <dbl> <int> <dbl> <dbl> <dbl> <dbl> <dbl> <dbl> <dbl> <dbl> <dbl>  <dbl>
##  1     1     1     0     0     0     0     0     0     0     0     0      0
##  2     1     2     0     0     0     0     0     0     0     0     0      0
##  3     1     3     0     0     0     0     0     0     0     0     0      0
##  4     1     4     0     0     0     0     0     0     0     0     0      0
##  5     1     5     0     0     0     0     0     0     0     0     0      0
##  6     1     6     0     0     0     0     0     0     0     0     0      0
##  7     1     7     0     0     0     0     0     0     0     0     0      0
##  8     1     8     0     0     0     0     0     1     0     0     0      0
##  9     1     9     0     0     0     0     0     1     0     0     0      0
## 10     1    10     0     0     0     0     0     1     0     0     0      0
## # ... with 20 more rows, and 410 more variables: sid_11 <dbl>, sid_12 <dbl>,
## #   sid_13 <dbl>, sid_14 <dbl>, sid_15 <dbl>, sid_16 <dbl>, sid_17 <dbl>,
## #   sid_18 <dbl>, sid_19 <dbl>, sid_20 <dbl>, sid_21 <dbl>, sid_22 <dbl>,
## #   sid_23 <dbl>, sid_24 <dbl>, sid_25 <dbl>, sid_26 <dbl>, sid_27 <dbl>,
## #   sid_28 <dbl>, sid_29 <dbl>, sid_30 <dbl>, sid_31 <dbl>, sid_32 <dbl>,
## #   sid_33 <dbl>, sid_34 <dbl>, sid_35 <dbl>, sid_36 <dbl>, sid_37 <dbl>,
## #   sid_38 <dbl>, sid_39 <dbl>, sid_40 <dbl>, sid_41 <dbl>, sid_42 <dbl>,
## #   sid_43 <dbl>, sid_44 <dbl>, sid_45 <dbl>, sid_46 <dbl>, sid_47 <dbl>,
## #   sid_48 <dbl>, sid_49 <dbl>, sid_50 <dbl>, sid_51 <dbl>, sid_52 <dbl>,
…
