Line by Line Test Binary Allocation with Linear Regression • Optimal Allocation
…
tb_key_alpha_A_beta <- bind_cols(tb_mtcars, df_esti_alpha_A_beta) %>%
              select(one_of(c('rowid', 'carname', 'mpg', 'hp', 'qsec', 'vs', 'am', ar_st_varnames)))

# Unique beta, A, and alpha check
tb_opti_unique <- tb_key_alpha_A_beta %>% group_by(!!!syms(ar_st_varnames)) %>%
                    arrange(!!!syms(ar_st_varnames)) %>%
                    summarise(n_obs_group=n())

# Only include currently automatic cars
# tb_key_alpha_A_beta <-tb_key_alpha_A_beta %>% filter(am == 'automatic')

# Show cars
head(tb_key_alpha_A_beta, 32)

## # A tibble: 32 x 10
##    rowid carname          mpg    hp  qsec vs          am      alpha     A   beta
##    <int> <chr>          <dbl> <dbl> <dbl> <fct>       <fct>   <dbl> <dbl>  <dbl>
##  1     1 Mazda RX4       21     110  16.5 engineVSha~ manual   3.97  18.9 0.0312
##  2     2 Mazda RX4 Wag   21     110  17.0 engineVSha~ manual   3.97  18.9 0.0312
##  3     3 Datsun 710      22.8    93  18.6 engineStra~ manual   6.53  21.3 0.0312
##  4     4 Hornet 4 Drive  21.4   110  19.4 engineStra~ automa~  6.53  20.4 0.0312
##  5     5 Hornet Sporta~  18.7   175  17.0 engineVSha~ automa~  3.97  15.9 0.0312
##  6     6 Valiant         18.1   105  20.2 engineStra~ automa~  6.53  20.6 0.0312
##  7     7 Duster 360      14.3   245  15.8 engineVSha~ automa~  3.97  12.9 0.0312
##  8     8 Merc 240D       24.4    62  20   engineStra~ automa~  6.53  22.6 0.0312
##  9     9 Merc 230        22.8    95  22.9 engineStra~ automa~  6.53  20.8 0.0312
## 10    10 Merc 280        19.2   123  18.3 engineStra~ automa~  6.53  20.0 0.0312
## # ... with 22 more rows
…
