DISCRETE--Discrete Provision Optimal Allocation Solution (Line by Line) • PrjOptiAlloc
…
## Warning: funs() is soft deprecated as of dplyr 0.8.0
## Please use a list of either functions or lambdas: 
## 
##   # Simple named list: 
##   list(mean = mean, median = median)
## 
##   # Auto named with `tibble::lst()`: 
##   tibble::lst(mean, median)
## 
##   # Using lambdas
##   list(~ mean(., trim = .2), ~ median(., na.rm = TRUE))
## This warning is displayed once per session.

## # A tibble: 45 x 16
##    county X_mean distcod_mean enrltot_mean teachers_mean calwpct_mean
##    <fct>   <dbl>        <dbl>        <dbl>         <dbl>        <dbl>
##  1 Alame…     1        75119          195          10.9         0.510
##  2 Butte     36        61486.        1152.         60.5        36.3  
##  3 Calav…   233        61572          777          36.8        13.0  
##  4 Contr…   299.       61738.        2726.        138.          3.51 
##  5 El Do…   294.       61912.        1373.         69.5         6.73 
##  6 Fresno   111        62250.         504.         26.4        21.1  
##  7 Glenn    264.       62596          138.          6.58        7.11 
##  8 Humbo…   240.       62888.         380.         20.6        17.8  
##  9 Imper…   121.       63163.        1936          92.5        19.7  
## 10 Inyo     252        63255         1510          73.3        10.3  
## # … with 35 more rows, and 10 more variables: mealpct_mean <dbl>,
## #   computer_mean <dbl>, testscr_mean <dbl>, compstu_mean <dbl>,
## #   expnstu_mean <dbl>, str_mean <dbl>, avginc_mean <dbl>, elpct_mean <dbl>,
## #   readscr_mean <dbl>, mathscr_mean <dbl>
…
Regression with Data

Tabulate

# Tabulate groups, how many in each group, enough for group heterogeneity in effects?
dfca %>%
  group_by(county, grspan) %>%
  summarize(freq = n()) %>%
  pivot_wider(names_from = grspan, values_from = freq)

## # A tibble: 45 x 3
## # Groups:   county [45]
##    county       `KK-08` `KK-06`
##    <fct>          <int>   <int>
##  1 Alameda            1      NA
##  2 Butte              6      NA
##  3 Calaveras          1      NA
##  4 Contra Costa       7      NA
##  5 El Dorado         10      NA
##  6 Fresno            12      NA
##  7 Glenn              3      NA
##  8 Humboldt          14       3
##  9 Imperial           6      NA
## 10 Inyo               1      NA
## # … with 35 more rows
…
rs_scr_on_str_tidy = tidy(rs_scr_on_str)
rs_scr_on_str_tidy

## # A tibble: 49 x 5
##    term                               estimate std.error statistic   p.value
##    <chr>                                 <dbl>     <dbl>     <dbl>     <dbl>
##  1 mt_model(Intercept)                 707.         9.93   71.2    1.54e-218
##  2 mt_modelfactor(county)Butte          -6.11       9.48   -0.645  5.19e-  1
##  3 mt_modelfactor(county)Calaveras      -9.02      12.2    -0.737  4.61e-  1
##  4 mt_modelfactor(county)Contra Costa   -8.96       9.22   -0.971  3.32e-  1
##  5 mt_modelfactor(county)El Dorado     -12.3        9.05   -1.36   1.75e-  1
##  6 mt_modelfactor(county)Fresno        -10.9        9.09   -1.20   2.29e-  1
##  7 mt_modelfactor(county)Glenn          -0.414     10.0    -0.0412 9.67e-  1
##  8 mt_modelfactor(county)Humboldt       -7.98       8.91   -0.895  3.71e-  1
##  9 mt_modelfactor(county)Imperial      -10.9        9.44   -1.16   2.49e-  1
## 10 mt_modelfactor(county)Inyo           -8.27      12.2    -0.677  4.99e-  1
## # … with 39 more rows
…
