Example Discrete and Bounded-Continuous Optimal Allocation for N=2 • Optimal Allocation
…
}

tb_strike_eh_disc_all <-
  as_tibble(do.call(rbind, ls_mt_strike_eh_disc)) %>%
  mutate(vartype = 'discrete') %>%
  mutate(outtype = 'strike')

print(tb_strike_eh_disc_all)

## # A tibble: 41 x 8
##    w_dollars w_units EH_1l EH_2l  D_1l  D_2l vartype  outtype
##        <dbl>   <dbl> <dbl> <dbl> <dbl> <dbl> <chr>    <chr>  
##  1        20       1  1.22 1.82      0     1 discrete strike 
##  2        20       1  2.32 0.958     1     0 discrete strike 
##  3        40       2  1.22 2.63      0     2 discrete strike 
##  4        40       2  2.32 1.82      1     1 discrete strike 
##  5        40       2  3.32 0.958     2     0 discrete strike 
##  6        60       3  1.22 3.36      0     3 discrete strike 
##  7        60       3  2.32 2.63      1     2 discrete strike 
##  8        60       3  3.32 1.82      2     1 discrete strike 
##  9        60       3  4.29 0.958     3     0 discrete strike 
## 10        80       4  1.22 4.04      0     4 discrete strike 
## # ... with 31 more rows
…
