Wage and Employment Comparison Binary Allocation Lalonde Training Example • Optimal Allocation
…
# Reshape to long
tb_rev_wage_employ_long <- tb_rev_wage_employ %>%
  pivot_longer(
    cols = starts_with('rev'),
    names_to = c('Outcome'),
    names_pattern = paste0('rev', "_(.*)"),
    values_to = 'rev'
  )

print(round(tb_rev_wage_employ %>%
              mutate(rand_v_init = rev_employment_prob/rev_employ_v_re75rank),2))

## # A tibble: 30 x 8
##     eval   rho rev_expected_wage rev_employment_prob rev_employage_prob
##    <dbl> <dbl>             <dbl>               <dbl>              <dbl>
##  1     1  0.99              41.8                18.9               17.5
##  2     2  0.99              41.8                18.9               17.5
##  3     3  0.98              41.8                18.9               17.5
##  4     4  0.97              41.8                18.9               17.5
##  5     5  0.96              41.8                18.9               17.5
##  6     6  0.95              41.8                20.2               17.5
##  7     7  0.93              41.8                19.2               17.5
##  8     8  0.91              41.8                20.2               17.5
##  9     9  0.87              41.1                19.5               17.5
## 10    10  0.83              41.1                21.9               17.5
## # ... with 20 more rows, and 3 more variables: rev_employ_v_re75rank <dbl>,
## #   one_minus_rho <dbl>, rand_v_init <dbl>
…
