Function Test Discrete Allocation with Linear Regression • Optimal Allocation
…
## Warning: `cols` is now required when using unnest().
## Please use `cols = c(rev)`

## Warning: `cols` is now required when using unnest().
## Please use `cols = c(alloc_i_upto_Q)`

df_queue_il_long <- ls_df_queue_hand$df_queue_il_long
df_queue_il_wide <- ls_df_queue_hand$df_queue_il_wide
df_alloc_i_long  <- ls_df_queue_hand$df_alloc_i_long
df_rho_gini  <- ls_df_queue_hand$df_rho_gini
df_alloc_il_long <- ls_df_queue_hand$df_alloc_il_long

print(df_queue_il_long)

## # A tibble: 36 x 11
##      rho rho_val  id_i id_il D_max_i  D_il  Q_il D_Wbin_il  V_sum_l V_inner_Q_il
##    <dbl>   <dbl> <dbl> <dbl>   <dbl> <dbl> <int>     <dbl>    <dbl>        <dbl>
##  1     1   0.99      1     1       3     1     4         1 1.31e+ 0     2.41e+ 0
##  2     2   0.785     1     1       3     1     4         1 9.89e- 1     1.97e+ 0
##  3     3  -3.64      1     1       3     1     9         0 2.14e- 3     4.33e- 2
##  4     4 -99         1     1       3     1     9         0 8.30e-61     8.44e-29
##  5     1   0.99      1     2       3     2     3         1 9.89e- 1     2.08e+ 0
##  6     2   0.785     1     2       3     2     3         1 7.89e- 1     1.77e+ 0
##  7     3  -3.64      1     2       3     2     6         0 6.10e- 3     6.42e- 2
##  8     4 -99         1     2       3     2     7         0 1.94e-48     8.44e-29
##  9     1   0.99      1     3       3     3     2         1 6.62e- 1     1.76e+ 0
## 10     2   0.785     1     3       3     3     2         1 5.74e- 1     1.55e+ 0
## # ... with 26 more rows, and 1 more variable: V_star_Q_il <dbl>
…
print(df_alloc_il_long)

## # A tibble: 36 x 5
##      rho  Q_il sid_1 sid_2 sid_3
##    <dbl> <int> <dbl> <dbl> <dbl>
##  1     1     1     0     0     1
##  2     1     2     1     0     1
##  3     1     3     2     0     1
##  4     1     4     3     0     1
##  5     1     5     3     0     2
##  6     1     6     3     1     2
##  7     1     7     3     2     2
##  8     1     8     3     3     2
##  9     1     9     3     3     3
## 10     2     1     0     0     1
## # ... with 26 more rows
…
# print(str(df_queue_il_wide))
print(df_rho_gini)

## # A tibble: 1,680 x 9
##      rho rho_val gini_D_star gini_EH_star atkinson_EH_star sd_D_star sd_EH_star
##    <int>   <dbl>       <dbl>        <dbl>            <dbl>     <dbl>      <dbl>
##  1     1   0.99        0.445       0.0154       0.00000362      20.1       17.8
##  2     2   0.785       0.445       0.0154       0.00000362      20.2       17.8
##  3     3  -3.64        0.445       0.0151       0.00000362      20.3       17.5
##  4     4 -99           0.821       0.0125       0.00000362      60.8       14.4
##  5     5   0.99        0.445       0.0154       0.00000362      20.1       17.8
##  6     6   0.785       0.445       0.0154       0.00000362      20.2       17.8
##  7     7  -3.64        0.445       0.0151       0.00000362      20.3       17.5
##  8     8 -99           0.821       0.0125       0.00000362      60.8       14.4
##  9     9   0.99        0.445       0.0154       0.00000362      20.1       17.8
## 10    10   0.785       0.445       0.0154       0.00000362      20.2       17.8
## # ... with 1,670 more rows, and 2 more variables: mean_EH_star <dbl>,
## #   min_EH_star <dbl>
…
print(df_cas_input_sub_ib)

##   id_i   A_i_l0 alpha_o_i beta_i
## 1    3 640.8497  2.761831      1
## 2   32 617.7468  3.047727      1
## 3  286 654.8866  2.792764      1
## 4  327 671.6376  2.516732      1

print(df_cas_input_sub_il)

## # A tibble: 299 x 7
##     id_i id_il D_max_i  D_il  A_il alpha_il beta_i
##    <int> <int>   <dbl> <int> <dbl>    <dbl>  <dbl>
##  1     3    23      83     1  641.    0.193      1
##  2     3    24      83     2  641.    0.189      1
##  3     3    25      83     3  641.    0.184      1
##  4     3    26      83     4  641.    0.180      1
##  5     3    27      83     5  642.    0.176      1
##  6     3    28      83     6  642.    0.172      1
##  7     3    29      83     7  642.    0.168      1
##  8     3    30      83     8  642.    0.165      1
##  9     3    31      83     9  642.    0.161      1
## 10     3    32      83    10  642.    0.158      1
## # ... with 289 more rows
…
## Warning: `cols` is now required when using unnest().
## Please use `cols = c(rev)`

## Warning in min(df_queue_il_with_V %>% filter(!!sym(svr_V_star_Q_il) >=
## fl_util_alter_alloc) %>% : no non-missing arguments to min; returning Inf

## Warning: `cols` is now required when using unnest().
## Please use `cols = c(fl_util_alter_alloc)`

Show Results

# Display Results
print(df_queue_il_sub_long)

## # A tibble: 1,196 x 9
##      rho rho_val  id_i id_il D_max_i  D_il  Q_il D_Wbin_il V_star_Q_il
##    <dbl>   <dbl> <int> <int>   <dbl> <int> <int>     <dbl>       <dbl>
##  1     1   0.99      3    23      83     1    24         1       2627.
##  2     2   0.785     3    23      83     1    23         1       3790.
##  3     3  -3.64      3    23      83     1    19         1        441.
##  4     4 -99         3    23      83     1   101         0         NA 
##  5     1   0.99      3    24      83     2    26         1       2628.
##  6     2   0.785     3    24      83     2    26         1       3791.
##  7     3  -3.64      3    24      83     2    22         1        441.
##  8     4 -99         3    24      83     2   102         0         NA 
##  9     1   0.99      3    25      83     3    29         1       2628.
## 10     2   0.785     3    25      83     3    29         1       3792.
## # ... with 1,186 more rows
…
print(df_alloc_il_long)

## # A tibble: 1,196 x 6
##      rho  Q_il sid_3 sid_32 sid_286 sid_327
##    <dbl> <int> <dbl>  <dbl>   <dbl>   <dbl>
##  1     1     1     0      0       0       1
##  2     1     2     0      0       0       2
##  3     1     3     0      0       0       3
##  4     1     4     0      0       0       4
##  5     1     5     0      0       0       5
##  6     1     6     0      0       1       5
##  7     1     7     0      0       2       5
##  8     1     8     0      0       2       6
##  9     1     9     0      0       3       6
## 10     1    10     0      0       3       7
## # ... with 1,186 more rows
…
df_opt_caschool_input_mass_il %>%
  arrange(id_i, D_il) %>% 
  group_by(id_i) %>% 
  arrange(D_il) %>% 
  mutate(cumu_sum_group_i = cumsum(mass_i)) %>%
  arrange(id_i, D_il) %>%
  ungroup()

## # A tibble: 54,204 x 9
##     id_i id_il D_max_i  D_il  A_il alpha_il beta_i   mass_i cumu_sum_group_i
##    <int> <int>   <dbl> <int> <dbl>    <dbl>  <dbl>    <dbl>            <dbl>
##  1     1     1      11     1  691.    1.29       1 0.000177         0.000177
##  2     1     2      11     2  692.    1.09       1 0.000177         0.000353
##  3     1     3      11     3  693.    0.932      1 0.000177         0.000530
##  4     1     4      11     4  694.    0.808      1 0.000177         0.000706
##  5     1     5      11     5  695.    0.707      1 0.000177         0.000883
##  6     1     6      11     6  696.    0.624      1 0.000177         0.00106 
##  7     1     7      11     7  696.    0.554      1 0.000177         0.00124 
##  8     1     8      11     8  697.    0.496      1 0.000177         0.00141 
##  9     1     9      11     9  697.    0.446      1 0.000177         0.00159 
## 10     1    10      11    10  698.    0.404      1 0.000177         0.00177 
## # ... with 54,194 more rows
…
