…
    Source

    https://fmwww.bc.edu/ec-p/data/stockwatson/caschool.des
https://fanwangecon.github.io/PrjOptiAlloc/articles/ffv_opt_sodis_rkone_casch_allrw.html

    References

    Stock, James H. and Mark W. Watson (2003) Introduction to Econometrics, Addison-Wesley Educational Publishers, chapter 4–7.

    Examples

data(df_opt_caschool_input_il)
head(df_opt_caschool_input_il, 30)
#> # A tibble: 30 x 7
#>     id_i id_il D_max_i  D_il  A_il alpha_il  beta_i
#>    <int> <int>   <dbl> <int> <dbl>    <dbl>   <dbl>
#>  1     1     1       1     1  691.    1.29  0.00238
#>  2     2     2       1     1  654.    1.58  0.00238
#>  3     3     3       8     1  641.    0.193 0.00238
#>  4     3     4       8     2  641.    0.189 0.00238
#>  5     3     5       8     3  641.    0.184 0.00238
#>  6     3     6       8     4  641.    0.180 0.00238
#>  7     3     7       8     5  642.    0.176 0.00238
#>  8     3     8       8     6  642.    0.172 0.00238
#>  9     3     9       8     7  642.    0.168 0.00238
#> 10     3    10       8     8  642.    0.165 0.00238
#> # ... with 20 more rows
…
