Theorem 1, Binary Optimal Allocation solution, loop along a vector of planner inequality preference (rho) — ffp_opt_anlyz_rhgin_bin • Optimal Allocation
…
df_all_rho <- ls_bin_solu_all_rhos$df_all_rho
head(df_all_rho %>% select(svr_id_i, svr_A_i, svr_alpha_i, starts_with("rho")), 30)
#> Note: Using an external vector in selections is ambiguous.
#> i Use `all_of(svr_id_i)` instead of `svr_id_i` to silence this message.
#> i See <https://tidyselect.r-lib.org/reference/faq-external-vector.html>.
#> This message is displayed once per session.
#> Note: Using an external vector in selections is ambiguous.
#> i Use `all_of(svr_A_i)` instead of `svr_A_i` to silence this message.
#> i See <https://tidyselect.r-lib.org/reference/faq-external-vector.html>.
#> This message is displayed once per session.
#> Note: Using an external vector in selections is ambiguous.
#> i Use `all_of(svr_alpha_i)` instead of `svr_alpha_i` to silence this message.
#> i See <https://tidyselect.r-lib.org/reference/faq-external-vector.html>.
#> This message is displayed once per session.
#> # A tibble: 30 x 9
#>    indi.id A_lin alpha_lin rho_c1_rk rho_c2_rk rho_c3_rk rho_c4_rk rho_c5_rk
#>      <dbl> <dbl>     <dbl>     <int>     <int>     <int>     <int>     <int>
#>  1       2  78.4    0.0101       937       967       967       967       967
#>  2       3  79.9    0.0323       853       669       669       669       669
#>  3       4  78.9    0.0323       583       578       578       578       578
#>  4       5  80.6    0.0662       734       521       202       201       201
#>  5       6  77.8    0.0101       787       861       861       861       861
#>  6       7  79.6    0.0662       484       428       125       125       125
#>  7       8  77.8    0.0101       793       865       865       865       865
#>  8       9  78.0    0.0101       823       883       883       883       883
#>  9      10  80.0    0.0662       572       483       166       166       166
#> 10      11  77.7    0.0602       126       126       358       358       358
#> # ... with 20 more rows, and 1 more variable: rho_c6_rk <int>
…
