Given dataframe solve for stimulus across household types and find relaxed policy bounds as defined by counterfactuals. — ffp_snw_stimulus_checks_bush_add2dfid • Optimal Allocation
…
    Author

    Fan Wang, http://fanwangecon.github.io

    Examples

data(df_nsw_tiny_chk168_df_id)
df_id <- df_nsw_tiny_chk168_df_id
it_income_n_in_seg <- 100
df_id_checkadded_actual <- ffp_snw_stimulus_checks_bush_add2dfid(df_id, it_income_n_in_seg)
print('df_id_checkadded_actual')
#> [1] "df_id_checkadded_actual"
print(df_id_checkadded_actual)
#> # A tibble: 111 x 11
#>     id_i bush_rebate bush_rebate_n_c~ marital  kids age_group ymin_group    mass
#>    <dbl>       <dbl>            <dbl>   <int> <int> <fct>     <chr>        <dbl>
#>  1     1        398.                4       0     0 (17,64]   (0,0.363]  3.17e-2
#>  2     2        600                 6       0     0 (17,64]   (0.363,0.~ 6.06e-2
#>  3     3        600                 6       0     0 (17,64]   (0.544,0.~ 9.94e-2
#>  4     4        600                 6       0     0 (17,64]   (0.725,0.~ 4.37e-2
#>  5     5        600                 6       0     0 (17,64]   (0.907,1.~ 5.08e-2
#>  6     6        600                 6       0     0 (17,64]   (1.09,1.2~ 2.18e-2
#>  7     7        548.                5       0     0 (17,64]   (1.27,1.4~ 1.91e-2
#>  8     8        143.                1       0     0 (17,64]   (1.45,1.6~ 3.07e-2
#>  9     9          0                 0       0     0 (17,64]   (1.63,1.8~ 9.42e-4
#> 10    10          0                 0       0     0 (17,64]   (1.81,1.9~ 1.19e-2
#> # ... with 101 more rows, and 3 more variables: hhsize <dbl>,
#> #   y_group_min <dbl>, y_group_max <dbl>
…
